{
    "domain": "myshopi.eu.auth0.com",
    "clientId": "Cn7V4kczHODeDU3QnFVi8wCXciogYFwP",
    "audience": "https://backend-api.myshopi.com",
    "scope": "read:webshop-promos read:clubs read:banners create:banners update:banners openid profile"
  }